{
    "variable": [
        {
            "id": "baseUrl",
            "key": "baseUrl",
            "type": "string",
            "name": "string",
            "value": "http:\/\/localhost"
        }
    ],
    "info": {
        "name": "Lumen",
        "_postman_id": "6265dda1-904f-41b1-bd5a-58f22cbfc52d",
        "description": "",
        "schema": "https:\/\/schema.getpostman.com\/json\/collection\/v2.1.0\/collection.json"
    },
    "item": [
        {
            "name": "Endpoints",
            "description": "",
            "item": [
                {
                    "name": "Return all articles",
                    "request": {
                        "url": {
                            "host": "{{baseUrl}}",
                            "path": "api\/articles",
                            "query": [],
                            "raw": "{{baseUrl}}\/api\/articles"
                        },
                        "method": "GET",
                        "header": [
                            {
                                "key": "Content-Type",
                                "value": "application\/json"
                            },
                            {
                                "key": "Accept",
                                "value": "application\/json"
                            }
                        ],
                        "body": null,
                        "description": "",
                        "auth": {
                            "type": "noauth"
                        }
                    },
                    "response": [
                        {
                            "header": [
                                {
                                    "key": "cache-control",
                                    "value": "no-cache, private"
                                },
                                {
                                    "key": "content-type",
                                    "value": "application\/json"
                                }
                            ],
                            "code": 200,
                            "body": "{\"errors\":null,\"data\":{\"current_page\":1,\"data\":[{\"id\":20,\"title\":\"Ea dolor.\",\"cover\":\"https:\\\/\\\/via.placeholder.com\\\/150x150.png\\\/009988?text=a\",\"short_description\":\"Duchess, 'and that's why. Pig!' She said the Footman, and began to tremble. Alice looked down at the...\",\"tags\":{\"id\":5,\"name\":\"Quam.\"}},{\"id\":19,\"title\":\"Et.\",\"cover\":\"https:\\\/\\\/via.placeholder.com\\\/150x150.png\\\/00ddaa?text=cumque\",\"short_description\":\"Don't let me hear the rattle of the party were placed along the sea-shore--' 'Two lines!' cried the...\",\"tags\":{\"id\":8,\"name\":\"Maxime.\"}},{\"id\":18,\"title\":\"Soluta.\",\"cover\":\"https:\\\/\\\/via.placeholder.com\\\/150x150.png\\\/004455?text=delectus\",\"short_description\":\"OURS they had a head unless there was no one listening, this time, as it was good practice to say 'D...\",\"tags\":{\"id\":7,\"name\":\"Dolor.\"}},{\"id\":17,\"title\":\"Vel.\",\"cover\":\"https:\\\/\\\/via.placeholder.com\\\/150x150.png\\\/001100?text=cumque\",\"short_description\":\"I'm a deal faster than it does.' 'Which would NOT be an old conger-eel, that used to it in time,' sa...\",\"tags\":{\"id\":9,\"name\":\"Omnis.\"}},{\"id\":16,\"title\":\"Aut quia.\",\"cover\":\"https:\\\/\\\/via.placeholder.com\\\/150x150.png\\\/0022aa?text=voluptatem\",\"short_description\":\"Alice, very loudly and decidedly, and there was no label this time she had forgotten the little gold...\",\"tags\":{\"id\":1,\"name\":\"Dolor.\"}},{\"id\":15,\"title\":\"Eaque ea.\",\"cover\":\"https:\\\/\\\/via.placeholder.com\\\/150x150.png\\\/005500?text=voluptas\",\"short_description\":\"Mock Turtle went on, '\\\"--found it advisable to go among mad people,' Alice remarked. 'Right, as usua...\",\"tags\":{\"id\":8,\"name\":\"Maxime.\"}},{\"id\":14,\"title\":\"Ea iure.\",\"cover\":\"https:\\\/\\\/via.placeholder.com\\\/150x150.png\\\/0055dd?text=sint\",\"short_description\":\"March Hare. 'I didn't know that Cheshire cats always grinned; in fact, I didn't know that cats COULD...\",\"tags\":{\"id\":5,\"name\":\"Quam.\"}},{\"id\":13,\"title\":\"Quia.\",\"cover\":\"https:\\\/\\\/via.placeholder.com\\\/150x150.png\\\/003399?text=at\",\"short_description\":\"Queen, and in another minute there was no 'One, two, three, and away,' but they were all turning int...\",\"tags\":{\"id\":5,\"name\":\"Quam.\"}},{\"id\":12,\"title\":\"Quos et.\",\"cover\":\"https:\\\/\\\/via.placeholder.com\\\/150x150.png\\\/00ff33?text=mollitia\",\"short_description\":\"March Hare: she thought there was a dead silence instantly, and Alice called after her. 'I've someth...\",\"tags\":{\"id\":10,\"name\":\"Eos.\"}},{\"id\":11,\"title\":\"Ut ad.\",\"cover\":\"https:\\\/\\\/via.placeholder.com\\\/150x150.png\\\/009966?text=nulla\",\"short_description\":\"No room!' they cried out when they liked, so that by the English, who wanted leaders, and had come b...\",\"tags\":{\"id\":1,\"name\":\"Dolor.\"}}],\"first_page_url\":\"http:\\\/\\\/localhost\\\/api\\\/articles?page=1\",\"from\":1,\"last_page\":2,\"last_page_url\":\"http:\\\/\\\/localhost\\\/api\\\/articles?page=2\",\"links\":[{\"url\":null,\"label\":\"&laquo; Previous\",\"active\":false},{\"url\":\"http:\\\/\\\/localhost\\\/api\\\/articles?page=1\",\"label\":\"1\",\"active\":true},{\"url\":\"http:\\\/\\\/localhost\\\/api\\\/articles?page=2\",\"label\":\"2\",\"active\":false},{\"url\":\"http:\\\/\\\/localhost\\\/api\\\/articles?page=2\",\"label\":\"Next &raquo;\",\"active\":false}],\"next_page_url\":\"http:\\\/\\\/localhost\\\/api\\\/articles?page=2\",\"path\":\"http:\\\/\\\/localhost\\\/api\\\/articles\",\"per_page\":10,\"prev_page_url\":null,\"to\":10,\"total\":20},\"message\":\"All Articles\",\"status\":\"success\"}",
                            "name": ""
                        }
                    ]
                },
                {
                    "name": "GET api\/articles\/{id}",
                    "request": {
                        "url": {
                            "host": "{{baseUrl}}",
                            "path": "api\/articles\/:id",
                            "query": [],
                            "raw": "{{baseUrl}}\/api\/articles\/:id",
                            "variable": [
                                {
                                    "id": "id",
                                    "key": "id",
                                    "value": "earum",
                                    "description": ""
                                }
                            ]
                        },
                        "method": "GET",
                        "header": [
                            {
                                "key": "Content-Type",
                                "value": "application\/json"
                            },
                            {
                                "key": "Accept",
                                "value": "application\/json"
                            }
                        ],
                        "body": null,
                        "description": "",
                        "auth": {
                            "type": "noauth"
                        }
                    },
                    "response": [
                        {
                            "header": [
                                {
                                    "key": "cache-control",
                                    "value": "no-cache, private"
                                },
                                {
                                    "key": "content-type",
                                    "value": "application\/json"
                                }
                            ],
                            "code": 400,
                            "body": "{\"errors\":\"No query results for model [App\\\\Models\\\\Articles] earum\",\"data\":null,\"message\":\"An error occurred error\",\"status\":\"error\"}",
                            "name": ""
                        }
                    ]
                },
                {
                    "name": "POST api\/articles\/{id}\/like",
                    "request": {
                        "url": {
                            "host": "{{baseUrl}}",
                            "path": "api\/articles\/:id\/like",
                            "query": [],
                            "raw": "{{baseUrl}}\/api\/articles\/:id\/like",
                            "variable": [
                                {
                                    "id": "id",
                                    "key": "id",
                                    "value": "et",
                                    "description": ""
                                }
                            ]
                        },
                        "method": "POST",
                        "header": [
                            {
                                "key": "Content-Type",
                                "value": "application\/json"
                            },
                            {
                                "key": "Accept",
                                "value": "application\/json"
                            }
                        ],
                        "body": null,
                        "description": "",
                        "auth": {
                            "type": "noauth"
                        }
                    },
                    "response": []
                },
                {
                    "name": "POST api\/articles\/{id}\/view",
                    "request": {
                        "url": {
                            "host": "{{baseUrl}}",
                            "path": "api\/articles\/:id\/view",
                            "query": [],
                            "raw": "{{baseUrl}}\/api\/articles\/:id\/view",
                            "variable": [
                                {
                                    "id": "id",
                                    "key": "id",
                                    "value": "beatae",
                                    "description": ""
                                }
                            ]
                        },
                        "method": "POST",
                        "header": [
                            {
                                "key": "Content-Type",
                                "value": "application\/json"
                            },
                            {
                                "key": "Accept",
                                "value": "application\/json"
                            }
                        ],
                        "body": null,
                        "description": "",
                        "auth": {
                            "type": "noauth"
                        }
                    },
                    "response": []
                },
                {
                    "name": "POST api\/articles\/{id}\/comment",
                    "request": {
                        "url": {
                            "host": "{{baseUrl}}",
                            "path": "api\/articles\/:id\/comment",
                            "query": [],
                            "raw": "{{baseUrl}}\/api\/articles\/:id\/comment",
                            "variable": [
                                {
                                    "id": "id",
                                    "key": "id",
                                    "value": "et",
                                    "description": ""
                                }
                            ]
                        },
                        "method": "POST",
                        "header": [
                            {
                                "key": "Content-Type",
                                "value": "application\/json"
                            },
                            {
                                "key": "Accept",
                                "value": "application\/json"
                            }
                        ],
                        "body": null,
                        "description": "",
                        "auth": {
                            "type": "noauth"
                        }
                    },
                    "response": []
                }
            ]
        }
    ],
    "auth": {
        "type": "noauth"
    }
}