## Autogenerated by Scribe. DO NOT MODIFY.

name: Endpoints
description: ''
endpoints:
  -
    httpMethods:
      - GET
    uri: api/articles
    metadata:
      groupName: Endpoints
      groupDescription: ''
      subgroup: ''
      subgroupDescription: ''
      title: 'Return all articles'
      description: ''
      authenticated: false
      custom: []
    headers:
      Content-Type: application/json
      Accept: application/json
    urlParameters: []
    cleanUrlParameters: []
    queryParameters: []
    cleanQueryParameters: []
    bodyParameters: []
    cleanBodyParameters: []
    fileParameters: []
    responses:
      -
        status: 200
        content: '{"errors":null,"data":{"current_page":1,"data":[{"id":20,"title":"Ea dolor.","cover":"https:\/\/via.placeholder.com\/150x150.png\/009988?text=a","short_description":"Duchess, ''and that''s why. Pig!'' She said the Footman, and began to tremble. Alice looked down at the...","tags":{"id":5,"name":"Quam."}},{"id":19,"title":"Et.","cover":"https:\/\/via.placeholder.com\/150x150.png\/00ddaa?text=cumque","short_description":"Don''t let me hear the rattle of the party were placed along the sea-shore--'' ''Two lines!'' cried the...","tags":{"id":8,"name":"Maxime."}},{"id":18,"title":"Soluta.","cover":"https:\/\/via.placeholder.com\/150x150.png\/004455?text=delectus","short_description":"OURS they had a head unless there was no one listening, this time, as it was good practice to say ''D...","tags":{"id":7,"name":"Dolor."}},{"id":17,"title":"Vel.","cover":"https:\/\/via.placeholder.com\/150x150.png\/001100?text=cumque","short_description":"I''m a deal faster than it does.'' ''Which would NOT be an old conger-eel, that used to it in time,'' sa...","tags":{"id":9,"name":"Omnis."}},{"id":16,"title":"Aut quia.","cover":"https:\/\/via.placeholder.com\/150x150.png\/0022aa?text=voluptatem","short_description":"Alice, very loudly and decidedly, and there was no label this time she had forgotten the little gold...","tags":{"id":1,"name":"Dolor."}},{"id":15,"title":"Eaque ea.","cover":"https:\/\/via.placeholder.com\/150x150.png\/005500?text=voluptas","short_description":"Mock Turtle went on, ''\"--found it advisable to go among mad people,'' Alice remarked. ''Right, as usua...","tags":{"id":8,"name":"Maxime."}},{"id":14,"title":"Ea iure.","cover":"https:\/\/via.placeholder.com\/150x150.png\/0055dd?text=sint","short_description":"March Hare. ''I didn''t know that Cheshire cats always grinned; in fact, I didn''t know that cats COULD...","tags":{"id":5,"name":"Quam."}},{"id":13,"title":"Quia.","cover":"https:\/\/via.placeholder.com\/150x150.png\/003399?text=at","short_description":"Queen, and in another minute there was no ''One, two, three, and away,'' but they were all turning int...","tags":{"id":5,"name":"Quam."}},{"id":12,"title":"Quos et.","cover":"https:\/\/via.placeholder.com\/150x150.png\/00ff33?text=mollitia","short_description":"March Hare: she thought there was a dead silence instantly, and Alice called after her. ''I''ve someth...","tags":{"id":10,"name":"Eos."}},{"id":11,"title":"Ut ad.","cover":"https:\/\/via.placeholder.com\/150x150.png\/009966?text=nulla","short_description":"No room!'' they cried out when they liked, so that by the English, who wanted leaders, and had come b...","tags":{"id":1,"name":"Dolor."}}],"first_page_url":"http:\/\/localhost\/api\/articles?page=1","from":1,"last_page":2,"last_page_url":"http:\/\/localhost\/api\/articles?page=2","links":[{"url":null,"label":"&laquo; Previous","active":false},{"url":"http:\/\/localhost\/api\/articles?page=1","label":"1","active":true},{"url":"http:\/\/localhost\/api\/articles?page=2","label":"2","active":false},{"url":"http:\/\/localhost\/api\/articles?page=2","label":"Next &raquo;","active":false}],"next_page_url":"http:\/\/localhost\/api\/articles?page=2","path":"http:\/\/localhost\/api\/articles","per_page":10,"prev_page_url":null,"to":10,"total":20},"message":"All Articles","status":"success"}'
        headers:
          cache-control: 'no-cache, private'
          content-type: application/json
        description: null
        custom: []
    responseFields: []
    auth: []
    controller: null
    method: null
    route: null
    custom: []
  -
    httpMethods:
      - GET
    uri: 'api/articles/{id}'
    metadata:
      groupName: Endpoints
      groupDescription: ''
      subgroup: ''
      subgroupDescription: ''
      title: ''
      description: ''
      authenticated: false
      custom: []
    headers:
      Content-Type: application/json
      Accept: application/json
    urlParameters:
      id:
        name: id
        description: ''
        required: true
        example: earum
        type: string
        custom: []
    cleanUrlParameters:
      id: earum
    queryParameters: []
    cleanQueryParameters: []
    bodyParameters: []
    cleanBodyParameters: []
    fileParameters: []
    responses:
      -
        status: 400
        content: '{"errors":"No query results for model [App\\Models\\Articles] earum","data":null,"message":"An error occurred error","status":"error"}'
        headers:
          cache-control: 'no-cache, private'
          content-type: application/json
        description: null
        custom: []
    responseFields: []
    auth: []
    controller: null
    method: null
    route: null
    custom: []
  -
    httpMethods:
      - POST
    uri: 'api/articles/{id}/like'
    metadata:
      groupName: Endpoints
      groupDescription: ''
      subgroup: ''
      subgroupDescription: ''
      title: ''
      description: ''
      authenticated: false
      custom: []
    headers:
      Content-Type: application/json
      Accept: application/json
    urlParameters:
      id:
        name: id
        description: ''
        required: true
        example: et
        type: string
        custom: []
    cleanUrlParameters:
      id: et
    queryParameters: []
    cleanQueryParameters: []
    bodyParameters: []
    cleanBodyParameters: []
    fileParameters: []
    responses: []
    responseFields: []
    auth: []
    controller: null
    method: null
    route: null
    custom: []
  -
    httpMethods:
      - POST
    uri: 'api/articles/{id}/view'
    metadata:
      groupName: Endpoints
      groupDescription: ''
      subgroup: ''
      subgroupDescription: ''
      title: ''
      description: ''
      authenticated: false
      custom: []
    headers:
      Content-Type: application/json
      Accept: application/json
    urlParameters:
      id:
        name: id
        description: ''
        required: true
        example: beatae
        type: string
        custom: []
    cleanUrlParameters:
      id: beatae
    queryParameters: []
    cleanQueryParameters: []
    bodyParameters: []
    cleanBodyParameters: []
    fileParameters: []
    responses: []
    responseFields: []
    auth: []
    controller: null
    method: null
    route: null
    custom: []
  -
    httpMethods:
      - POST
    uri: 'api/articles/{id}/comment'
    metadata:
      groupName: Endpoints
      groupDescription: ''
      subgroup: ''
      subgroupDescription: ''
      title: ''
      description: ''
      authenticated: false
      custom: []
    headers:
      Content-Type: application/json
      Accept: application/json
    urlParameters:
      id:
        name: id
        description: ''
        required: true
        example: et
        type: string
        custom: []
    cleanUrlParameters:
      id: et
    queryParameters: []
    cleanQueryParameters: []
    bodyParameters: []
    cleanBodyParameters: []
    fileParameters: []
    responses: []
    responseFields: []
    auth: []
    controller: null
    method: null
    route: null
    custom: []
